C:\inter\interExercise-master\Exercise\src\main\java\banco\inter\exercise\controller\UsuarioController.java
C:\inter\interExercise-master\Exercise\src\main\java\banco\inter\exercise\core\Conversor.java
C:\inter\interExercise-master\Exercise\src\main\java\banco\inter\exercise\model\Digito.java
C:\inter\interExercise-master\Exercise\src\main\java\banco\inter\exercise\config\WebConfig.java
C:\inter\interExercise-master\Exercise\src\main\java\banco\inter\exercise\core\ResponseBase.java
C:\inter\interExercise-master\Exercise\src\main\java\banco\inter\exercise\repository\UsuarioRepository.java
C:\inter\interExercise-master\Exercise\src\main\java\banco\inter\exercise\calc\DigitoUnico.java
C:\inter\interExercise-master\Exercise\src\main\java\banco\inter\exercise\criptografia\CriptografiaRSA.java
C:\inter\interExercise-master\Exercise\src\main\java\banco\inter\exercise\config\AppConfig.java
C:\inter\interExercise-master\Exercise\src\main\java\banco\inter\exercise\core\Response.java
C:\inter\interExercise-master\Exercise\src\main\java\banco\inter\exercise\error\RequestExceptionHandler.java
C:\inter\interExercise-master\Exercise\src\main\java\banco\inter\exercise\dto\FormUsuario.java
C:\inter\interExercise-master\Exercise\src\main\java\banco\inter\exercise\App.java
C:\inter\interExercise-master\Exercise\src\main\java\banco\inter\exercise\model\Usuario.java
C:\inter\interExercise-master\Exercise\src\main\java\banco\inter\exercise\repository\DigitoRepository.java
C:\inter\interExercise-master\Exercise\src\main\java\banco\inter\exercise\config\WebAppInitializer.java
C:\inter\interExercise-master\Exercise\src\main\java\banco\inter\exercise\service\UsuarioService.java
C:\inter\interExercise-master\Exercise\src\main\java\banco\inter\exercise\cache\Cache.java
C:\inter\interExercise-master\Exercise\src\main\java\banco\inter\exercise\criptografia\Criptografia.java
C:\inter\interExercise-master\Exercise\src\main\java\banco\inter\exercise\dto\FormDigito.java
C:\inter\interExercise-master\Exercise\src\main\java\banco\inter\exercise\calc\Parametros.java
C:\inter\interExercise-master\Exercise\src\main\java\banco\inter\exercise\service\impl\UsuarioServiceImpl.java
